PersonX pleases ___ to make @@ xWant	to say thanks for making it| to eat it| to produce something| to be in their good graces
PersonX dates for years @@ xWant	to keep in contact for 2nd dates| to propose| to go to the movies| to go to dinner| to get married
PersonX goes about PersonX's work @@ xWant	Get ready to do more work.| Relax after the work.| to keep his job.| to succeed.
PersonX takes a step back @@ xWant	to take a step backward.| to escape being bit by a snake| place foot on the ground.| rebalance themselves| run away| to avoid embarrassing people
PersonX breaks wind @@ xWant	Apologize for breaking wind| Attempt to minimize the odors that accompany flatulence (fanning, spraying air freshener, opening windows)
PersonX earns money @@ xWant	to spend the money| to give some to charity| To have success| To be successful| to save money| to open an account.| to spend money
PersonX sees ___ away @@ xWant	talk to the other| to go back inside| approach the other| to scream| to get some rest| to get away
PersonX loses PersonY temper @@ xWant	to mock personY| to laugh about it| to get away from PersonY.| to explain that it wasn't PersonX's fault.
PersonX is found dead morning at PersonY's home in @@ xWant	nothing because they dead| nothing because they are still dead| nothing, they're dead| nothing| to explore the afterlife| nothing they are dead
PersonX takes place soon @@ xWant	to rest| to be in their spot| to show who's boss| to carry out the task
PersonX gets ___ from work @@ xWant	to get out of the car| to think what else they can get| to leave right away| to go back home| to think about what they got| to rest| to cry
PersonX rests on PersonX's laurels @@ xWant	to have people admire him| to have people talk about him| to be lazy| take a nap| think about life| to always have all the praise| drink a coffee| to rely on his past accomplishments| to get an award
PersonX loves ___ than anything @@ xWant	to travel all around the world| to strenghten the relationship| to spend time with them| to explore the world
PersonX makes a date @@ xWant	to thank the friend for coming,| to get ready for the date| take rest| feel happy| to take his friend back home| take the other person to a restaurant| to have a romantic relationship| to go on the date
PersonX applies for jobs @@ xWant	to go to work| to make money| to gain financial security| to obtain employment| to buy a car
PersonX is in a good mood @@ xWant	to share joy with others| to remain happy| to have fun| laugh| get productive| get things done
PersonX wants another one @@ xWant	to ask for another one| have another one| to buy another one| regret the decision
PersonX helps PersonY along @@ xWant	show their friend the way| sit down| to help them sit down| to move out of the desert| be kind| to look at the compass
PersonX puts PersonY's mind at ease @@ xWant	To make Y understand| To give guidance| comfort PersonY| hug PersonY| To comfort Y| To publish results of research
PersonX delivers PersonY address @@ xWant	to help PersonY| to do what was asked by PersonY| to thank personY for the help| to hope it goes over well
PersonX thanks PersonY's profusely @@ xWant	to see the appreciate being thanked| person Y to feel appreciated| to enjoy what they did for them| return the favor| to promise to return PersonY's favor someday| to help PersonY someday
PersonX finds a good deal @@ xWant	make a purchase of the item| to take advantage of the deal| to save money| to show off their savings| to save some money| tell someone else about the deal
PersonX pulls PersonY's hand back @@ xWant	to turn off the stove| to put out the fire| introduce themselves| run from the area
PersonX wants to learn how to sing @@ xWant	to start their online singing lessons.| to perform for people.| to find a singing coach| practice| contact singing coach
PersonX leaves PersonY's alone @@ xWant	to do nothing with him anymore| to turn around| to walk away
PersonX turns a blind eye @@ xWant	They run| avoid drama| avoid anything to do with the event| They go home| avoid trouble| to do something else| to not think about what happened| never talk about the event
PersonX wants to hurt PersonY @@ xWant	to hurt PersonY emotionally| To make truce| to punch PersonY| to kick PersonY| To apologies
PersonX goes from zero to hero @@ xWant	reminisce over what happened| improve one's station| to celebrate his victory| take some time alone| to be recognized| relax| to celebrate the event| to throw a party
PersonX donates plasma @@ xWant	eat food| to earn money| to help people in trouble| get's a band aid| get happiness from it| to help others
PersonX takes ___ to prevent @@ xWant	test the plan out| make sure the plan works| to continue to take his medications| to stay healthy
PersonX takes place in the century @@ xWant	read| to live in the moment| watch tv| unclear| to make a statement
PersonX forms a band @@ xWant	record performance| to launch the band| to book performances| to play music with band| perform on stage| to perform in front of the audience
PersonX sleeps tonight @@ xWant	to be energized for the next day| to relax| to go to work earlier than usual.| to feel fresh in the morning.
PersonX plays PersonY's new game @@ xWant	to play games with PersonY| to beat PersonY| to finish all stages of the new games| to punch Y in the mouth for winning the game because he cheated.| to invite their friends to play with them| to celebrate that X won the game over Y.
PersonX appoints a ___ to investigate @@ xWant	to solve the case| to come to a conclusion| to see what they find out| Gather information.| to make sure everyone is professional
PersonX wipes PersonX's forehead @@ xWant	to throw away napkin| to stop sweat dripping into eyes| to drink water| dry forehead
PersonX gives the ___ PersonX's name @@ xWant	to be known| to let PersonX know the news| to book a room| to change the name
PersonX learns the printer 's ___ @@ xWant	to get hired as a printer| to check their progress| to test their knowledge| put paper in| to print a paper| to begin printing materials
PersonX spits nails @@ xWant	clean up mess| place hand in mouth again| walk away to calm down| talk to person who caused it| finish woodwork| look at fingers
PersonX becomes great friends @@ xWant	to hang out with his friend| to get lunch with his friend| eat fun foods| play games
PersonX forgets PersonY's wallet @@ xWant	drive back home| to go back to get PersonY's wallet| retrieve forgotten item| to remember PersonY's wallet
PersonX burns the ___ at both ends @@ xWant	to enjoy the rewards from working so hard| To throw away| to relax| Put the candle away| Clean up| To turn it to ashes
PersonX enjoys PersonY's class @@ xWant	to have a break from class| tell someone about it| go to another class| to leave the class
PersonX measures the ___ directly @@ xWant	to make sure it's the right fit| To finish the work| to show independence| to find another one| To get the work done| to show accuracy
PersonX looks angry @@ xWant	to vent his anger| to shout at him| to understand the situation and to be cool| to stay calm
PersonX catches PersonY's dog @@ xWant	to take the dog to the dog pound| to return the dog to PersonY| to ask PersonY out| to give the animal back| to make sure it is okay
PersonX visits every ___ @@ xWant	think of fond memories of visit| go home| to go back home| to visit other places| to explore more places| to rest
PersonX increases the ___ at the expense @@ xWant	to try to make amends| to make a new agreement| Keep looking for more ways.| Fire some people.
PersonX starts working again @@ xWant	clock out after work| to have dinner| save| work hard| to finish their work| obey bosses| to travel back home| to make money| to fill in back to work forms| complete the work day
PersonX picks on PersonY @@ xWant	Walk away and do something else| to tell his friends what he said| to laugh at Person Y| to avoid repercussions.| Keep picking on PersonY| to continue the belittlement.| Physically attack PersonY
PersonX passes around PersonY @@ xWant	to avoid PersonY| to see PersonY's boss instead of them| to appear generous| to bump into personY| to share| to have fun| to hide from PersonY| to make sure persony has fun
PersonX shares ___ equally @@ xWant	money| to clock out and go home| to see if everyone is happy| home
PersonX begins to eat @@ xWant	to enjoy the tastes| to satisfy their hunger| to finish their meal| to be full
PersonX fails PersonX's math class @@ xWant	to give up| to get a better grade| to work harder| to be more responsible| Make the F into an A.| Lie to his parents.
PersonX impresses by PersonY's work @@ xWant	to let them know they did well| to encourage PersonY| to assign PersonY more work| to encourage them to go further| to praise PersonY
PersonX is much more careful @@ xWant	to go to sleep| to go home| to avoid danger| to stay safe
PersonX plays hardball @@ xWant	people to respect his opinion| negotiate| walk away| to win the negotiation
PersonX is right next to PersonY @@ xWant	to talk to him| to tease him| say hello| wave
PersonX can take PersonY @@ xWant	sleep| take person y| to do something| eat| to go home| to make sure Y does it right.| to lead Y.
PersonX finds a hole @@ xWant	to interact with the hole| to look inside the hole| to prevent leak| to see what's inside the hole| fill the hole| to shine a flashlight in the hole
PersonX dyes PersonX's hair blue @@ xWant	a new look| to look in the mirror| to get attention| to look unique| to take some photos of their hair| to shock everyone
PersonX prevents ___ in patients @@ xWant	to keep an eye on their evolution| sends a hospital bill| to dispose of syringes| to ask them how they feel| to issue bill for service| do more research
PersonX french kisses @@ xWant	to make out| to take photgraph| to hug| to turn someone on| to have embrace reciprocated| Have sex| Cuddle
PersonX takes a bow @@ xWant	to perform again| to get a reward| get a laugh| get an ovation
PersonX owns a dog @@ xWant	Feed the dog| walk dog| to train it to become a good dog| to take care of it well| Walk the dog| play with dog
PersonX buys PersonX's one @@ xWant	to get new shoes| to go home| to use the shoes for a job interview| to meet a need| to try it out| to eat something tasty
PersonX convinces every ___ @@ xWant	to be seen as a leader| to part ways| to tell everyone that peace is the best| to persuade| to take everyone's money and run| to carry out something| to continue talking
PersonX murders PersonY @@ xWant	to get away with crime| to get away from the scene| to destroy all evidences| to exact revenge| to get a job| to meet people
PersonX becomes very frustrated @@ xWant	to fight| to give up| to figure out the situation.| to cheer up| to calm down| to scream| to calm down.
PersonX waits all day @@ xWant	to go online and search for a sale| to get home quickly| to enter the store and buy everything| to do something else| to call and find out the progress| to stop waiting
PersonX quickly fell in love @@ xWant	to be loved back| to consummate the love| to tell the person he loves them| to get married| to love and care for someone| to propose marriage
PersonX keeps the ___ from the door @@ xWant	monitor the door| take shifts with another person| to release the animal from the trap away from the door| to save his life from enemies| to guard his home| to bring the animal to animal control
PersonX throws a frisbee @@ xWant	to have fun| to enjoy the nice weather| have fun| come back home
PersonX does n't have many friends @@ xWant	to cry| to go out and make more friends| to make friends| to so something fun
PersonX does n't make the cut @@ xWant	to give up| to practice more in order to succeed next time| to sleep| to go home| to get better| to go home and sulk alone
PersonX exerts PersonX's influence @@ xWant	to take charge| give contact information| for people to be helped| to change rules| look for person's reaction| to opress people| to things to work out well
PersonX confronts PersonY's roommate @@ xWant	get their way| fight| talk| argue| slam the door| leave
PersonX accidentally poured @@ xWant	to apologise| to be more attentive| get paper towel| wipe it out| to clean clothes| to clean the mess
PersonX gets there early @@ xWant	to scope out the place| to get a good seat
PersonX peers inside @@ xWant	to watch a movie| to find his mom| to look at everything| leave| to ask the price of the house| see what is in there| to go inside
PersonX visits PersonY's daughter @@ xWant	Engage in leisure activities with PersonY's daughter| Have an enjoyable social call| Catch up on old times| to go home| to visit with persony
PersonX begs PersonY's parents for one @@ xWant	to get a dog| get dog food
PersonX gives PersonY a note @@ xWant	to read a response| to hear PersonY's response| to smile at PersonY| to talk to PersonY about the note| to await a response| to write another note
PersonX lays on PersonY's bed @@ xWant	get up| to rest| to sleep| rest
PersonX has a long way to go @@ xWant	to reach the end| to find purpose| to ask help someone| to reach home| to find direction| to meet people| to keep going
PersonX provides ___ to the public @@ xWant	to be president| to join politics| to work for the community| to help community
PersonX loses PersonX's sense @@ xWant	to go crazy| Make new sense.| Find his sense.| to do something reckless
PersonX flies across the room @@ xWant	to catch someone before they leave| to check his invention| to stop the vase from falling| to keep flying| to stop moving| to check the ceiling
PersonX watches intently @@ xWant	to learn| call the police| to investigate| to find out what happened| chase after the thing they are watching| to stay hidden so that they are not noticed| take note of actions
PersonX hears the end of ___ @@ xWant	Stop listening.| Turn off something.| to ask a question| to leave
PersonX practices all day @@ xWant	win a game| be the best at something| win the contest| to get better| to win the competition| take part in the contest
PersonX helps PersonY's brother @@ xWant	to relax| a glass of water| to go home| to be thanked| to get some rest| to go home and rest
PersonX tunes PersonX's guitar @@ xWant	to play beautiful music| to see if the guitar still works| start to play quitar| to show skill| take a bow| to play a good performance
PersonX knows PersonY's name @@ xWant	tell others the persons name| to indite y| talk with that person| to gather information| to ask them out.| to report them.
PersonX offer to teach PersonY @@ xWant	to make sure PersonY succeeds| to pay PersonY| to find more students| to help PersonY know how to do things| to thank PersonY| to evaluate PersonY| to teach PersonY
PersonX loves to surf @@ xWant	to put on their wetsuit| to show off their skills| to relax afterwards| to surf| to go to the beach| to grab their board| to wear sunscreen| to catch some waves
PersonX sees PersonY alone @@ xWant	to see what PersonY is doing| to talk to personY| to talk to PersonY| to ask if they want to play a game
PersonX eats ___ for days @@ xWant	to fast| to loose weight| to get healthy| to goto GYM as he ate for 100days| lose weight| to no longer be sick
PersonX starts to swell @@ xWant	to get medicine| To become normal| to drink some water| go to the hospital| to take a break| To go back to normal
PersonX notices a strange smell @@ xWant	to spray air freshner| to light a candle| look for the smell| clean up the mess| Got gloves| use air freshener| Spot treated| seek out the source of the smell
PersonX gives you PersonY account @@ xWant	to split the money| to hide the evidence
PersonX teaches ___ in schools @@ xWant	to pick up a paycheck| to cash a paychck
PersonX takes ___ to the er @@ xWant	for them to heal| to admit someone to the er| to make sure they see a doctor| to stay at the ER| to explain to the doctor| to find out what is wrong| to fill out forms
PersonX gives ___ a standing ovation @@ xWant	to show their gratitude and appreciation.| to see this person perform again.| to show appreciation| to respect someone
PersonX has lost PersonY's phone @@ xWant	to retrace their steps| for PersonY not to find out it's lost| to find it| to cover it up| to apologize| to remember where the phone is| to pay PersonY some money for the phone
PersonX hangs PersonY's head @@ xWant	ask what is wrong| to talk about healthy choices| to punish PersonY| to suffocate PersonY| to discuss honesty| talk about situation
PersonX bosses ___ around @@ xWant	to make people nervous| to feel powerful| to be avoided| to keep doing it| to be in charge
PersonX smacks PersonY @@ xWant	to be ashamed| to tell Person Y the reason that he did that| to apologize to Person Y| to apologize| to diffuse the situation.| to defend from further attacks.| to make sure Y does not fight back.
PersonX leaves the ___ alone @@ xWant	to move on to something else| to walk away| to start fresh| to be less reliant
PersonX visits a farm @@ xWant	to to feed them| start their own farm| volunteer at farm| to pet the animals| learn about animals| to check out the animals| to buy some vegtables
PersonX sets ___ to rights @@ xWant	to tell everyone to calm down| to make new policies| to decide the issue| to implement the decision
PersonX attends PersonX's father 's ___ @@ xWant	to wish his father to go to heaven| to pray| to make a speech| to make a toast| to talk to father one last time| to miss father| to cry
PersonX asks PersonY for money @@ xWant	To purchase food| to go pay bills| to sign a payback agreement| to pocket money| to go to someone else to ask for money| to keep money in wallet| to thank PersonY| to say thanks to PersonY
PersonX moves PersonX's car @@ xWant	make sure they are parked correctly| to get out of the car| to wash the car.| get out of car| to place something else in its place.| to lock the car
PersonX cuts a swath @@ xWant	to collect the crop| wash it| to sew it| to get rid of it| to burn it| to get past it
PersonX always makes ___ @@ xWant	to be appreciated.| to make something else| a lucrative career| to get money.| to go to a good college| to continue making soething
PersonX goes down the tubes @@ xWant	to have fun| to relax| to be miserable| to drown their sorrows
PersonX forgives ___ PersonY's trespasses @@ xWant	to build good relationship with people| make friends with Person Y| to enforce more rules for Person Y| forget the incident| it to not happen again| to take people into confidence
PersonX plays many sports @@ xWant	improve skills| meet people| to demonstrate athleticism| to train for the olympics| to be in shape| compete| to try out for a professional soccer team| get exercise
PersonX finds a good spot @@ xWant	to lie down| take a nap| to park the car| to enter the event| to sit down
PersonX feels a ___ better @@ xWant	sleep| to establish healthy habits| get some food| to go back to work or school| breath deeply| to follow up with the doctor| get a drink
PersonX replaces the tire @@ xWant	to drive home| to keep driving| to be paid| drive the vehicle| to buy another spare| to get in the car| to get a move on| to put the other tire away
PersonX gets the ___ right @@ xWant	to have fun with their significant other| to share their findings| to do better with coworkers| to test it out
PersonX justifies PersonY's existence @@ xWant	to have a purpose.| To help Y| to help PersonY| to make PersonY feel better about themself| to  see a reason for life.| To assist Y
PersonX surprises PersonX's family @@ xWant	to keep his family happy| to smile| to hug everyone| to enjoy the holidays with his family
PersonX helps ___ with problems @@ xWant	to stay humble| to ensure that problems do not occur in the future| to thank the people for coming to him| to be rewarded
PersonX drives on the highway @@ xWant	arrive at destination| go back home
PersonX replaces PersonX's tire @@ xWant	fix the old tire| drive| to wash their hands| rest
PersonX becomes a lawyer @@ xWant	to win in court| client| to get clients| practice| celebrate with family| get a job at a law firm
PersonX becomes smarter @@ xWant	to show off| to get smarter| She graduates College.| Becomes the doctor.| To further her academics| To pass a test
PersonX wants to kiss PersonY @@ xWant	to be loved| kiss them again| to kiss PersonY| to make love| to grab PersonY| ask them on a date
PersonX has tons of fun @@ xWant	take pictures| to eat something| to perform in front of others| invite friends| to go home| to rest a bit| has to impress
PersonX hands PersonY a glass @@ xWant	offer PersonY some cheese and crackers| to sit down and talk to PersonY| pour themselves a drink| to wash the glass| to put it away| close cabinet
PersonX takes PersonY outside @@ xWant	to impress| to propose to her| to love| to talk things out| to look at trees| to go for a walk
PersonX finally got ___ @@ xWant	set new goal| Use the thing| to prepare for her first day on the job| to attend orientation| celebrate| tell other people about it.| to go to the office building
PersonX plays for PersonX @@ xWant	to win| get applause| receive positive feedback| to practice more| to have fun| to take a rest
PersonX gets some exercise @@ xWant	drink water| to make abs| make something to eat| to drink water| have some rest| relax| to eat healthy
PersonX loves riding PersonX's bike @@ xWant	buy helmet| to spend the whole day riding their bike| go on a bike ride| to race with others
PersonX gives PersonY courage @@ xWant	help person y keep having courage| to watch them try| To be helpful| give them ways to stay brave| to see them succeed| To encourage Y
PersonX posts ___ on fb @@ xWant	check for comments| attention| to store memorable pictures| to share with friends| to show pictures to facebook friends| logout facebook
PersonX cuts open ___ @@ xWant	to place the knife on a table| to take what's in the box| to see what inside the box| to start cutting| to use the item found inside the box right away| to close blade
PersonX drops ___ on the floor @@ xWant	to apologize for the mistake| to pick it up| get a broom to sweep it up| pick it up
PersonX drags PersonY along @@ xWant	to show PersonY the museum| to take PersonY on the fair rides| to enjoy the party| someone to come with| companionship on the trip| to dance with Y
PersonX takes it everywhere with PersonY @@ xWant	the item to be protected| wants a relationship| wants company| the item to be safe
PersonX falls from the tree @@ xWant	see a doctor to check any injuries| to cry out in pain| to laugh at themself| get hurt| get up and limp back into the house| call out for help| tell someone the story of falling out of the tree| scream
PersonX asks ___ for money @@ xWant	to ask for more money| to express thanks| to get some help| to get a loan
PersonX watches PersonY @@ xWant	to complete an observation survey| to catch him on the spot| to find out Y's house| to get close to persony| check his activities| to record persony's action
PersonX feels lucky @@ xWant	to gamble| to buy something| to do something| to be happy
PersonX starts to sink @@ xWant	save himself| hold breath| flail around| swim| choke on water| drop some weight
PersonX takes PersonY example @@ xWant	to make use of information| to show support| to explain PersonY's example| to go on with the presentation| work| Assignment
PersonX sees what was going on @@ xWant	Joins in on what's going on| make an informed conclusion on why its going on| to investigate why its going on| Walks away| to say something| to keep watching
PersonX interprets the ___ in ways @@ xWant	to reach a conclusion| Ask someone for their opinion| Look up more information| to make life easier| to share it with others| to be correct
PersonX loves PersonY with all my heart @@ xWant	to propose marriage| to feel love back.| to get engaged| to get married| to help plan wedding| to spend more time with Peterson Y.
PersonX bites PersonX's ___ to keep @@ xWant	to spit out the blood| rinse their mouth out
PersonX remembers PersonY's name @@ xWant	to know everyone's name| to figure out why they forgot| to think about them| to share past experiences| to be polite| to greet
PersonX takes ___ for a ride @@ xWant	To take a long drive| to go home| get something to eat| to drop people off| To go on vacation
PersonX makes my day @@ xWant	to say goodbye| to cheer someone up| to leave for work| to be close to me| to spend a lot of time with me| to be seen as nice
PersonX buys PersonX's wife ___ @@ xWant	to wish her for her birthday| to express his love| to celebrate a milestone| to give something to the wife| to ask the wife if she likes it
PersonX leaves the table @@ xWant	to go home| go home| to use the bathroom| to use the restroom| use the bathroom
PersonX expects another ___ @@ xWant	to listen to it| to see what happens| to learn it| to hope it arrives on time| to reinforce his battlements| to prepare for battle
PersonX breaks free @@ xWant	to take rest| to be free| to leave the place| run| to regain control| to get away
PersonX calls ___ the next day @@ xWant	have a conversaton| talk to person| to ask questions| to talk to someone| solidify plans| leave a voice mail| plan a get together| say goodbye| hang up
PersonX puts PersonY's ___ together @@ xWant	Keep giving them advice.| Make sure they're doing the right thing.| to add to them| to review them| to take a trip| to pack the suitcase
PersonX pays PersonX's ___ to the king @@ xWant	To stay in good standing| tell others about the event| To gain respect from the King| remember the event
PersonX turns the tables @@ xWant	to apologize| to continue dominating| to win something| to give it a rest
PersonX washes PersonY's car @@ xWant	polish| to dry the car| to get paid| to have a nap| to wax the car| dry off
PersonX looks at PersonY's face @@ xWant	to look at their skin.| to close the album| to tell him his conclusions| to examinate personY's face| to look at their eyes.| to put the album away
PersonX leaves the scene @@ xWant	to go home.| to drink and forget the scene| to go out and have fun.| to follow up with witnesses| to hide| meet the police chief to discuss their findings
PersonX grinds ___ for a week @@ xWant	To finish work| to get rewarded| To complete the work| to finish their work
PersonX puts the phone away @@ xWant	to do something productive| to let it charge| use any information that was gained| understand any information that was gained
PersonX visits PersonY's mother 's ___ @@ xWant	to sit around and chat| to have dinner| to see how they are doing| to say hello
PersonX meets the band @@ xWant	to start playing music| to congratulate the band| to thank the band for the performance| to shake hands with the band members| to say hello| to sign a contract
PersonX tips PersonY's head @@ xWant	let go| shave chin| to brush their hair.| to start a fight| to push him over| examine side of head| to kiss them.| to horseplay
PersonX loses 100 pounds @@ xWant	buy new clothes| celebrate
PersonX has a dinner party @@ xWant	to celebrate| to meet new people| She opens the door.| She invites them in.| to socialize| to have fun
PersonX reaches behind PersonY @@ xWant	take something| ask person y why they were hiding it| use the object they found| move away from PersonY
PersonX rides bikes @@ xWant	to take a trip into the country| to have a drink| to get a car| to enjoy his leisure| to relax himself| to get in shape
PersonX takes PersonY step @@ xWant	to continue helping PersonY| to follow suit| apologize| encourage| to take a rest| to be successful
PersonX sets PersonX's cap at ___ @@ xWant	to wipe their forehead| to marry her| to settle down in life| to set the hat at an angle| to sit down| to rub their head| to rest| to check the look in a morror| to raise the cap
PersonX improves PersonX's position @@ xWant	to celebrate| to help their subordinates| to get a promotion| to become a boss| to improve her career further| to have nicer things
PersonX nurses PersonY back @@ xWant	finish getting person y better.| tell person y what to do to keep themselves healthy.| receive thanks| have the favor returned| let them rest| periodically check on their condition| to be paid| peron y to stay healthy
PersonX rejects PersonY @@ xWant	Apologize for hurting Y's feelings.| Explain reasoning to Y| Get away from Y| Get some alone time| To talk to PersonY| To get away from PersonY
PersonX writes poetry @@ xWant	to show the poetry to others| to try to get their poetry published| to publish the poetry| to recite their poetry to family| to share their poetry online
PersonX gets ___ on the paper @@ xWant	to celebrate| have a party| go to sleep| take a nap| to clean up the spill| to throw the paper away
PersonX thinks would become @@ xWant	invests money| to gather many supporters| earn lots of money| decision| To become successful| enjoyment| to earn lots of money| to set up a hospital| ponders the future| To be famous
PersonX looks better @@ xWant	to go to work| to take pictures| to get dressed| to go out on the town| to take a photo| to take a shower
PersonX pulls out all the stops @@ xWant	to impress| for people to take notice| works hard| to make a toast| let nothing interfere in their work| to drink champagne
PersonX sees every ___ @@ xWant	to write down what they see| to go to lunch| to use their knowledge| to go home| to prepare for tomorrow
PersonX tells PersonY to say @@ xWant	to keep PersonY going| to be in power| to boss more people around| to make sure PersonY doesn't fail| to think of something else| to see the reaction| for PersonY to listen
PersonX opens PersonX's legs @@ xWant	to flash someone| To reach an area of the body| to ask the doctor a ?| To stretch
PersonX finds PersonX's car @@ xWant	unlock the car| fuel| drive home| car
PersonX tells my friend @@ xWant	to make them listen| to have a relationship| to share information| to be informative
PersonX is a good swimmer @@ xWant	to join the olympics team| to learn how to swim other styles| to keep practicing| to compete| To compete| To take part in swimming competition
PersonX gathers all the ingredients @@ xWant	to bake a cake| to cook food| put them in the oven| to do recipes| to cook| mix them up
PersonX wins several awards @@ xWant	to give a speech| celebrates with friends and family| to put the award on the mantle| collects the trophy's
PersonX catches the bus to work @@ xWant	to travel to work/school on the bus| to exit the bus at the right stop| to get off at their stop| to ride the bus to work| to walk from the bus stop to work/school| goes to the football game| goes shopping
PersonX takes a ride to tyburn @@ xWant	to thank the driver| to arrive at their destination| to go into their hotel| to get out of the car
PersonX pulls PersonY out @@ xWant	wipe off dirt| getting angry| Help PersonY| sit and breathe| Check PersonY for injury| to be alone
PersonX takes PersonX's laptop @@ xWant	to watch movie| to mail| to edit their vacation photos.| to do some work.| to complete assignment
PersonX finds PersonY's ring @@ xWant	to find person y| call them| to give it back| to return the ring
PersonX likes fish @@ xWant	to eat fish.| to clean fish.
PersonX walks PersonY to PersonX's car @@ xWant	To go for a ride| close door| to go in house| to take person Y somewhere
PersonX throws ___ in the way @@ xWant	to hinder others| To show anger| to remain powerful| To display frustration| to prevent cars from meeting an accident| to stop the car
PersonX starts working out @@ xWant	Enjoyed| Happy| hydrate| shower| to be more healthy| to gain more muscle
PersonX falls into the wrong hands @@ xWant	to separate themselves from bad people| to get out of a bad situation
PersonX is much cheaper @@ xWant	to earn more money| go to a different store| to buy something affordable| want to earn| To avoid deby| hardwork| to save money| to count their money| to find clients| To be frugal
PersonX takes PersonY's outside @@ xWant	to spend time outside| to mow the yard| to play outside| to return something
PersonX endures ___ and free @@ xWant	He got a many things are free| to push through it| to be strong| He is a slave
PersonX evaluates the patient 's ___ @@ xWant	relay the results of the evaluation to others| to prescribe medicine| make plans to address areas of concern| to educate the patient
PersonX makes perfect sense @@ xWant	He keeps talking.| He likes to impress her.| to smile| to express their ideas| to get a good grade| to think clearly
PersonX writes ___ using @@ xWant	send writing to publishers| share his writing with friends| to have the writing typed out| to make copies of what they wrote
PersonX takes place over a period @@ xWant	to change| take a break| do better| make plans
PersonX drives anyway @@ xWant	to get out of the car| to get away from something| turn off car| to get to a destination| to go somewhere| arrive at location
PersonX protects ___ from harm @@ xWant	to make sure they are ok| to find out if the dog is ok| to check up on the children| to look around
PersonX feels helpless @@ xWant	To change his situation| to try to do something to fix the situation| to give up| To feel empowered
PersonX files a report @@ xWant	to hand in a report| to read feedback| to make another report| to get updates| to read updates| to make corrections
PersonX takes it everywhere @@ xWant	to return something| stops taking it everywhere| to hold onto it| to use something| puts down it| to keep track of it
PersonX loves cake @@ xWant	to buy a cake.| to get a cake| to eat more cake| to eat a cake.| to buy cake| to eat the cake
PersonX finally got home @@ xWant	to sleep| get something to eat
PersonX loses PersonY's wallet @@ xWant	return wallet| To buy another one| search for wallet| To go wallet shopping
PersonX gets the call @@ xWant	Reject the call| to answer it| to pick up the phone| Answer the call| to talk to the person in question| to ignore the call
PersonX teaches PersonY things @@ xWant	to make him succeed| to ask question about the subject| to help PersonY| to get thanked| to keep teaching| to refine his tastes| to be of use
PersonX pays well @@ xWant	enjoy what they paid for| get more money
PersonX hats cats @@ xWant	Take care of her feline| Give her feline food and water
PersonX always beat ___ @@ xWant	to enter the competition| to celebrate| to keep doing a good job| to go home| to collect the winnings| to win the competition
PersonX takes as PersonY example @@ xWant	to show PersonY what they learned| to imitate person Y's behavior| to closely watch what person Y does| for them to see what they did| to apply PersonY's example| for them to learn from them
PersonX pours PersonX's heart @@ xWant	to express his feelings| to hear some consoling words| to vent his feelings| to express feelings| to ask someone something| to get advice| to wait for a response| to show affection
PersonX finishes the test @@ xWant	to get a good class grade.| to celebrate| to pass the test.| to take a nap
PersonX throws the food @@ xWant	to eat some of the food.| drink some water| wash and dry hands| to throw more food.
PersonX spends ___ at the beach @@ xWant	to relax| to swim| to enjoy the great weather| a tan| to sunbathe| to get a tan
PersonX becomes great @@ xWant	to enjoy being great| to continue being great| to show others his greatness| to get out of the spotlight
PersonX keeps PersonY from starving @@ xWant	to give Person Y some money for food.| eat himself| to get more food for Person Y.| prepare other needs of PersonY
PersonX is walking down the street @@ xWant	deliver something| to go to the mall| to get exercise| buy something| to go home| to get something to eat
PersonX takes PersonX's outside @@ xWant	get some fresh air| to breath fresh air| to go outside for a while| to enjoy some sunshine.| to breathe fresh air.| walk around
PersonX takes PersonX's stand @@ xWant	to show strength| win the case| get compensated| to defend beliefs
PersonX spends almost an hour @@ xWant	to finally do something else| to give up
PersonX throws the ball @@ xWant	begin playing a sport| to see who has the ball and what is happening next| to play catch with friends| to be prepared to catch the ball again| to win a ball game| have someone throw sports equipment back
PersonX wins some money @@ xWant	to spend it| spend his winnings| gamble some more| to save it
PersonX helps the ___ along @@ xWant	to celebrate| to scream with joy
PersonX looks different @@ xWant	take a photograph of themself| to change their apperance| go out on the town| to have fun| to do something different| to be different from others
PersonX puts ___ in PersonY's backpack @@ xWant	To have the right supplies| to surprise PersonY| to close PersonY's backpack| to tell PersonY what they have done| To be prepared| to sneak away
PersonX feels relief @@ xWant	exercise| have a better outlook| get some rest| to go home| relax| stretch
PersonX donates ___ to charity @@ xWant	balance their checkbook| to go to the bank| to feel satisfied| to feel good about themselves| to rest in their good feelings| to tell friends what he/she did
PersonX shares PersonX's experience @@ xWant	to answer questions| to have fun .| to go on adventures.| to help students with their own writing| to experience the same thing with others| to write about PersonX's eperience
PersonX shields PersonY's eyes @@ xWant	"to say ""guess who?""| to laugh| to leave and go home| make sure PersonY is okay"
PersonX is PersonY's maid of honor @@ xWant	to celebrate the wedding| to not let PersonY down| To look beautiful| to go to the wedding| To dress up well| to go home and rest
PersonX changes PersonY's lives @@ xWant	donate money| to embrace person y| to give money to person y| to see them live well| make wishes come true| to be thanked for it
PersonX goes scuba diving @@ xWant	come out of sea| to take chances| see fishes| to be adventurous
PersonX eats a hamburger @@ xWant	to enjoy the hamburger| to have dessert| wipe mouth with napkin| eat more food| leave tips| to take a rest
PersonX bites PersonX's nails @@ xWant	wash hands| spit out nails| Enjoy the pleasure from the biting.| Scold their self for biting.| file nails| spit nail out
PersonX loves the ___ with all PersonX's heart @@ xWant	to pray| to cherish them| to help others in need| to attend church| to hold them dearly| to go to church
PersonX evens saw ___ @@ xWant	observe what they seen| to watch something in there view| to post photos| to tell others about it
PersonX sets PersonY up @@ xWant	give the reward| Meet up with the new person| to go back to work| Make a reservation| to go home| get connected with person y
PersonX goes ___ to bed @@ xWant	to wake up| to pray| to have breakfast| to cover themselves
PersonX sits behind PersonY @@ xWant	to listen| tap PersonY| Set sideways to see around them.| to observe| Try to be quiet.| say hello
PersonX uses the ___ effectively @@ xWant	to teach others| to do a good job| to make sure nothing is wasted| to be efficient| to complete a task| to train others
PersonX gets a small loan @@ xWant	to start his business| to repay loan
PersonX does n't know what to expect @@ xWant	He fights in the war.| to hope for the best| to ask questions| They call him in.| to read about what they are abou to do| to add certainty to the situation| to wait and learn
PersonX gets frustrated @@ xWant	to express anger| to hit the wall| to solve the problem that's frustrating them| to be understood| to calm down
PersonX tickles the dragons tail @@ xWant	runs away from dragon| to run away| sees if dragon liked it| to put hand down| to make it laugh| to run in fear
PersonX spends ___ at PersonY's house @@ xWant	more enjoyment| to go home| night dinner| thank them
PersonX calls an ambulance @@ xWant	to walk again| administer first aid| see their family| wait for ambulence| live| to make sure the person is ok| to calm them down
PersonX likes cheese @@ xWant	to learn how to make cheese at home| taste a sample| to buy more cheese| to make grilled cheese sandwich| grocery shop
PersonX camps with PersonX's family @@ xWant	to grow with their family| to make a campfire| to do campfire| to be in nature| to watch nightsky| to go hiking
PersonX talks to PersonY on the phone @@ xWant	to converse| say good bye| hang up the receiver| to ask questions
PersonX gives a presentation @@ xWant	finish work| to impress others| drives PersonX home| go home| relax| packs up his papers and book| to show his knowledge
recieving favor @@ xWant	give gift
PersonX buys a car @@ xWant	to show it to friends| take a picture| drive it home| to register and insure the car| to take it driving| to drive the car home
PersonX assigns ___ to groups @@ xWant	to exercise leadership| commited| fun| to make sure everything goes smoothly| to divide properly| to stay in control
PersonX feels closer @@ xWant	move a step back| get closer still
PersonX saves PersonY's ___ from PersonX's sins @@ xWant	to yell at personY| them to be sorry for their sins| to tell PersonY the truth| to sacrifice themselves| to approach personY| them to live a good life
PersonX pays PersonY well @@ xWant	to give a bonus| to hire them for more work
PersonX walks to the car @@ xWant	insert the key| start the car| sit in car| Gets her keys out.| Cranks up the engine.
PersonX does n't have a lot of money @@ xWant	to get another job| to get a new job to make money| to make some| to save whatever little they have| to save it| to ask someone for help| to borrow money from another person
PersonX buys ___ for PersonX's wife @@ xWant	hug and kiss her| to celebrate with them| to see the person open their present| give the gift to his wife| get ready for the occasion he is going to give his wife the gift at| wrap the gift or bring her to the gift
PersonX catches flies @@ xWant	buy fly traps| to keep flies from coming in| to have fun| to enjoy| to dispose of the flies| dump outside
PersonX employs another ___ @@ xWant	to demonstrate something| help| them to start working| contact HR| to teach| give training
PersonX teaches ___ to use @@ xWant	to share their knowledge| to see others succeed| to test someone| to continue teaching
PersonX works last night @@ xWant	to make some money| to go to sleep
PersonX agrees on anything @@ xWant	to support the cause| Go home| to join the group| to enjoy life| Agree some more| avoid confrontation| to get along| to avoid arguments with anyone
PersonX is playing ball @@ xWant	to take some rest| to eat| to keep playing| stop playing| put the ball away| to go home| to rest
PersonX meets PersonX's husband @@ xWant	to thank their husband for helping| to live with him from now on| to ask him for help| them to do all the tasks on the list| to check to make sure all is ready| to give their husband a kiss| to get to know their husband| to grow with their husband
PersonX looks like someone @@ xWant	to ignore it| Looks in mirror| reflects on it| change there look| to keep looking like them| to impersonate someone
PersonX obtains a ___ as possible @@ xWant	to show off| to take possession| to sell it| to hang the picture in the office| to study it| to paste the picture in the home| to ask questions about it
PersonX waits for PersonY @@ xWant	to wonder about PersonY| go out with PersonY| to keep themselves busy| to see Person Y| meet PersonY| to do something with Person Y
PersonX accidentally ran @@ xWant	to run away| move quickly| lift legs| to go somewhere| to get somewhere fast| to get something done
PersonX offers ___ on this book when ordered @@ xWant	to make money| to offer more discounts| sell| to sell more books to others
PersonX pulls PersonY's car over @@ xWant	energy| to walk up to PersonY's car| key| to give PersonY a ticket| to quesiton him| to get his license and registration
PersonX buys one for PersonY @@ xWant	to wrap the present.| give it to PersonY.| to surprise them with it| to deliver the gift| to give it to Y| to wrap the present
PersonX gets warm @@ xWant	to take some cloths off to cool down| to cool off| to take a cold shower to cool off| to turn on the A/C| to fall asleep
PersonX calls PersonY's son @@ xWant	to talk| to take Y's son to principal| to tell son to get out of their house| to tell son to mow the yard| to tell son that PersonY is dead| to tell son that PersonY got into an accident| to teach| to make plans
PersonX buys ___ for my wife @@ xWant	to wrap up the item as a gift.| to surprise his wife with the item.| to give the gift to the wife| to get a thank you
PersonX gives PersonX's opinion @@ xWant	to feel better| to part ways| to finish with the meeting| to continue giving advice
PersonX can n't believe PersonX's luck @@ xWant	to collect their raffle prize| to cash in their lottery ticket| pick up the money on the ground
PersonX looks awful @@ xWant	comb hair| change clothes| to feel better| for others to not see them| to rest
PersonX helps ___ along @@ xWant	improve lives| ask for guidance| to finish the task| to pick up the turtle and place it on the other side of the road| to help more| to escort the lady across the road
PersonX brings ___ to PersonY's eyes @@ xWant	to apologize to PersonY| to hug PersonY| to smile at PersonY| to hold PersonY| to give PersonY tissue
PersonX gets ___ to make @@ xWant	to finish something| to make use of items| to get things done| to be responsible
PersonX escorts PersonY back @@ xWant	to leave PersonY somewhere| to help PersonY with other things| to ask them to leave| to jail PersonY| to see them wave from inside| to watch them unlock their house door
PersonX drives all the way back @@ xWant	to pick up the suicase he forgot| to get out of the car| to get his wallet| to get to their destination| to go back home| to retrieve something
PersonX falls on PersonY @@ xWant	feel ashamed| to stand up| to apologize| apologize| to go to the hospital
PersonX thanks the ___ for PersonY's comments @@ xWant	take questions| call on people| to give person y a gift| to get more feedback
PersonX throws PersonX's hat over the wall @@ xWant	to go home| leave the house for the store| buy a new headgear| to check where it has fallen
PersonX puts upon PersonY @@ xWant	to tell PersonY to get them everything| to not care about how PersonY feels
PersonX has a bad feeling @@ xWant	find the source of the bad feeling| stay on a cautionary path| don't make any sudden moves| to escape by watching a funny tv sho| to find out the truth| relieve the bad feeling| to throw up| be reassured| to get to the bottom of the issue| to take a bath
PersonX stirs within PersonY @@ xWant	to relax on the couch| to come out of PersonY| to think about Person Y| to laugh at PersonY
PersonX gets PersonX's hands dirty @@ xWant	to put the plants and seeds into the holes| to pick what grows and eat it| to gain something| to wash their hands| to not be fancy| to water them often| to clean their hands off| to cover them in dirt and water
PersonX blows PersonY's mind @@ xWant	Gets really close to her.| to surprise PersonY| He shows her more dance moves.| to learn more| to answer PersonY's questions| to talk to Y
PersonX walks in front of PersonY @@ xWant	say excuse me| get ahead of the pack| be noticed| apologize| to get to class| get somewhere| to beat person y to the gym
PersonX gets sunburned @@ xWant	to put lotion on the burn.| to put on lotion| to stay out of the sun from now on.| to get out of the sun
PersonX wins the championship @@ xWant	to feel proud| Get on TV.| to win a medal| Get his trophy.
PersonX impresses with PersonX's work @@ xWant	to do their best| to expand business| to show the work to his parents| to sell his paintings| to learn more| to be proud of himself
PersonX goes ___ with PersonX's mom @@ xWant	their mom to buy lunch.| their mom to feel good.| to come back home| to help his mother
PersonX would take care of it @@ xWant	make a plan| to handle it| to carry out a plan| to make sure it's finished| call friends| to rest
PersonX understands PersonY's nature @@ xWant	speak for PersonY's mind| to break up| to continue the friendship| become PersonY's best friend| to know more about himself/herself| to speculate about others' nature
PersonX loves reading books @@ xWant	to read| write books| puts finished books on shelf| sit down| read books| buy more books
PersonX dies peacefully @@ xWant	to have a funeral| to be buried| to be remembered| to rest in peace
PersonX eats ___ very quickly @@ xWant	to rest and relax| To order another pie| to lay down| to wash their hands| to slow down and enjoy it| To wash dishes
PersonX makes ___ the other day @@ xWant	to eat| to sell the table they made| Tell her how to make it.| Give her the ingredients.| to wash dishes| to shout and yell| to wear what they made
PersonX has to cancel PersonX's plans @@ xWant	to delete their appointments| to reschedule the original activity| to do the thing she had to cancel her plans to do| to do something else| to open their calendar| to just be alone| to alert the people
PersonX uses the ___ to describe @@ xWant	to describe the words| to describe the feelings| to ask for questions from anyone| to ask if someone comprehends| to pack up his materials, pen, pointer, briefcase, etc.| to continue describing something
PersonX is happy for PersonY @@ xWant	Try to accomplish their own goals| to congratulate PersonY| to wish PersonY best of luck| to hug PersonY| Hug PersonY| Congratulate PersonY| to celebrate with PersonY
PersonX falls from grace @@ xWant	to do better| to regain position| to get back up| to land safely| help| to be forgiven| to regain his credibility| to mend his ways
PersonX attention whores @@ xWant	to be the center of the attraction| to say they are popular| people to look at her| to make sure everyone knows they are there| to talk to everyone by force
PersonX puts ___ on PersonY's shoulders @@ xWant	to tell PersonY they did a good job| to say sorry| to hug PersonY| to help PersonY| to tell PersonY that everything is going to be ok| to leave
PersonX arrives at PersonX's destination @@ xWant	to get out of the car| to take rest| to check all luggages| to go on to her next destination.| to go inside| to do what she went there to do.
PersonX wins every ___ @@ xWant	to win everything| to celebrate| to take a vacation| to retire| to win the medal| to be known by everybody
PersonX looks like figure @@ xWant	to study their similarities| to look sexy| to look closely at the figure| to be conscious of apperance| to look at themselves in the mirror| to change how they look
PersonX puts PersonY to use @@ xWant	for PersonY to show generosity| correct PersonY| watch PersonY| to relieve responsibilities
PersonX slams dunk @@ xWant	score| to win the game| get back on defense| to continue practicing| run back to the game| celebrate
PersonX renews ___ by day @@ xWant	to heal themselves more| own many returned customers| attract a lot of customers| to look good.| to get strong| to feel good.
PersonX puts ___ all together @@ xWant	to show encouragement| to see how they did| to move on to something else| to show it to everyone| to give them tissue to wipe their tears| for PersonY to succeed
PersonX puts PersonX's ___ together @@ xWant	love| health| to reflect even further| to rest| to test out the item| to learn from it
PersonX moves every ___ @@ xWant	to relax for a while| to settle down in one spot
PersonX protects PersonY @@ xWant	to fight the enemies| to ask PersonY if they're okay| to hold Person Y| to cast a spell| to talk to Person Y| to bring PersonY to a safe place| to comfort PersonY
PersonX shakes PersonY's heads @@ xWant	stay and converse| to let go of PersonY| to show PersonY how to say no| to ask PersonY if they are in pain| to control PersonY| to give PersonY a massage| walk away
PersonX feels embarrassed @@ xWant	to run away| to make amends| to hide| to cry| to improve their confidence
PersonX sends a letter @@ xWant	to get a reply| to wait for the reply| for a letter in return| to check if it has been received| for it to be something good| to communicate
PersonX asks the doctor @@ xWant	to assure themselves of their health| to receive good news
PersonX looks like a man @@ xWant	to prove they are feminine| to just be normal| to ask women out| to con people| to buy more dresses| to act appropriate
PersonX paints the town red @@ xWant	to rebuild after the fighting| to have a set of moral codes
PersonX pays ___ to the government @@ xWant	to make more money| to be a good citizen| to avoid problems| cry| to complain| to pay more money
PersonX gets ___ at work @@ xWant	to make more money| To enjoy the promotion| Thank them for the extra income.| Go out and enjoy with friends| Keep giving all they got.| get a promotion
PersonX watches one with PersonY @@ xWant	to look at the star map| to watch another| to make some popcorn| to look up the birds they saw| to take PersonY home| to get a snack
PersonX notices someone @@ xWant	to ignore them| to talk to them| Scare the crap out of them.| Sneak up on them.| to keep walking| ignore them
PersonX comes to light @@ xWant	to spend time alone| to scream because of panic| to go home before the light goes| to control the riot| to do well| to never trust anyone| to improve more| to manage the situation| to see the world
PersonX rears PersonY's children @@ xWant	take a vacation| protects and provides| loves children| enjoy family life| shows affection
PersonX teaches ___ the way @@ xWant	to do something else| move on to next task| to go home and rest| verify other person understood the way
PersonX orders ___ at a restaurant @@ xWant	to satisfy a craving| to eat it| to eat food| to wait for the food to come| to take the leftovers| to enjoy a meal
PersonX sprays PersonX @@ xWant	wash off| protection| to smell good| to dry off| get a towel| to change clothes
PersonX teaches PersonY the way @@ xWant	to ask PersonY to do it on their own| to be there for PersonY when they have questions| for them to learn it| to guide PersonY all the way| to test PersonY's knowledge on the way| to make sure PersonY understands the way| for them to teach others
PersonX builds something @@ xWant	to look at it| Complete the work| Finished building work| to use it| test it out| give a gift
PersonX minces words @@ xWant	to take speaking course| to hide the secret| to escape trouble| to speak louder
PersonX is rather excited @@ xWant	to celebrate| to go camping with friends| to call some friends| to play a game
PersonX tries PersonX's ___ at making @@ xWant	to try something else| put supplies down| to ask questions| to see if they succeed| to tell everyone about it
PersonX conducts PersonY investigation @@ xWant	write a report| to catch PersonY redhanded| to make an apprehension| to find a witness| to report PersonY to the police| convict PersonY
PersonX wipes PersonY's forehead @@ xWant	to pour water on PersonY's head| to give PersonY some water| to tell PersonY to go and fight
PersonX blows through town @@ xWant	to get way| to stop| to get out of the car| car| to experience some place new| city
